%YAML 1.1
%TAG !u! tag:unity3d.com,2011:
--- !u!78 &1
TagManager:
  serializedVersion: 2
  tags:
  - Shrine
  - Hazard
  - SweepHazard
  - StairsTrigger1
  - StairsTrigger2
  - StairsTrigger3
  - StairsTrigger4
  layers:
  - Default
  - TransparentFX
  - Ignore Raycast
  - 
  - Water
  - UI
  - 
  - 
  - 
  - 
  - 
  - 
  - 
  - 
  - 
  - 
  - 
  - 
  - 
  - 
  - 
  - 
  - 
  - 
  - 
  - 
  - 
  - 
  - 
  - 
  - 
  - 
  m_SortingLayers:
  - name: Default
    uniqueID: 0
    locked: 0
  - name: Walls
    uniqueID: 352645963
    locked: 0
  - name: Player
    uniqueID: 3948720441
    locked: 0
  - name: Environment
    uniqueID: 1830136101
    locked: 0
  - name: Ground
    uniqueID: 3233523263
    locked: 0
